<svg width="20" height="20" viewBox="0 0 20 20" fill="none" xmlns="http://www.w3.org/2000/svg">
<path fill-rule="evenodd" clip-rule="evenodd" d="M0 10.2887C0 4.92528 4.34789 0.577393 9.71132 0.577393C15.0747 0.577393 19.4226 4.92528 19.4226 10.2887C19.4226 15.6521 15.0747 20 9.71132 20C4.34789 20 0 15.6521 0 10.2887ZM15.5908 8.04383C15.5908 7.92839 15.5884 7.81354 15.5838 7.69889C16.1539 7.28222 16.6427 6.77177 17.0371 6.18144C17.055 6.15482 17.0532 6.11965 17.0325 6.09501C17.0116 6.07057 16.9773 6.06222 16.9483 6.07554C16.5153 6.26768 16.0601 6.40557 15.591 6.48724C16.0891 6.11269 16.4599 5.5939 16.65 4.9992C16.6592 4.97058 16.6496 4.93959 16.6266 4.92091C16.6029 4.90243 16.5707 4.90005 16.5451 4.91535C15.984 5.24796 15.3766 5.48243 14.7389 5.61237C14.1733 5.02582 13.384 4.69022 12.5674 4.69022C10.9063 4.69022 9.55474 6.04156 9.55474 7.70287C9.55474 7.90375 9.57421 8.10284 9.61256 8.29598C7.31165 8.15391 5.15996 7.04915 3.69715 5.25492C3.68225 5.23664 3.6594 5.22631 3.63576 5.22869C3.61231 5.23048 3.59125 5.24359 3.57933 5.26406C3.31228 5.72206 3.1712 6.24582 3.1712 6.77873C3.1712 7.70247 3.59085 8.56601 4.30557 9.13567C3.93738 9.09136 3.57853 8.97572 3.25426 8.7957C3.2324 8.78338 3.20538 8.78358 3.18372 8.7963C3.16187 8.80881 3.14816 8.83186 3.14756 8.8571L3.14716 8.89564C3.14716 10.2219 4.02123 11.3869 5.26487 11.7734C4.93742 11.8266 4.59765 11.8225 4.26344 11.7591C4.2388 11.7545 4.21297 11.7628 4.19608 11.7819C4.17939 11.801 4.17383 11.8274 4.18158 11.8517C4.55433 13.0158 5.59074 13.8319 6.79663 13.9336C5.79063 14.6706 4.60123 15.059 3.34487 15.059C3.11338 15.059 2.88011 15.0455 2.65201 15.0183C2.61922 15.0145 2.58723 15.034 2.57591 15.0654C2.56458 15.097 2.57631 15.1321 2.60472 15.1502C3.9644 16.0223 5.53669 16.4831 7.1515 16.4831C12.4341 16.4831 15.5908 12.1922 15.5908 8.04383Z" fill="white"/>
</svg>
